Creating Models
…
---
# broom methods

For `augment()` we require the data to predict and attach

```r
augment(reg_fit, shuffled_data %>% select(Clark_Lake, humidity, ridership))
```

```
## # A tibble: 10 × 4
##   Clark_Lake humidity ridership .pred
##        <dbl>    <dbl>     <dbl> <dbl>
## 1      16.3      78        6.36 15.9 
## 2      19.2      70       19.3  18.5 
## 3      17.8      45       15.7  17.4 
## 4      19.9      50        4.31 19.3 
## 5      18.7      61       18.7  18.1 
## 6       2.13     54.5      8.44  3.51
## # … with 4 more rows
```
