Using resampling to estimate performance
…
# Cross-validating using rsample

rsample has a number of resampling functions built in. One is `vfold_cv()`, for performing V-Fold cross-validation like we've been discussing.

```r
set.seed(2453)

cv_splits <- vfold_cv(chi_train) #10-fold is default

cv_splits
```

```
## #  10-fold cross-validation 
## # A tibble: 10 × 2
##   splits             id    
##   <list>             <chr> 
## 1 <split [5115/569]> Fold01
## 2 <split [5115/569]> Fold02
## 3 <split [5115/569]> Fold03
## 4 <split [5115/569]> Fold04
## 5 <split [5116/568]> Fold05
## 6 <split [5116/568]> Fold06
## # … with 4 more rows
```
…
```
## [1] "2016-01-21" "2016-02-03"
```

---
# Our resampling object

```r
chi_rs
```

```
## # Sliding period resampling 
## # A tibble: 16 × 2
##   splits            id     
##   <list>            <chr>  
## 1 <split [5463/14]> Slice01
## 2 <split [5467/14]> Slice02
## 3 <split [5467/14]> Slice03
## 4 <split [5467/14]> Slice04
## 5 <split [5467/14]> Slice05
## 6 <split [5467/14]> Slice06
## # … with 10 more rows
```
…
In tidymodels, there is a function called `fit_resamples()` that will do all of this for us:

```r
ctrl <- control_resamples(save_pred = TRUE)

chi_res <-
  chi_wflow %>% 
  fit_resamples(resamples = chi_rs, control = ctrl)
chi_res
```

```
## # Resampling results
## # Sliding period resampling 
## # A tibble: 16 × 5
##   splits            id      .metrics         .notes           .predictions     
##   <list>            <chr>   <list>           <list>           <list>           
## 1 <split [5463/14]> Slice01 <tibble [2 × 4]> <tibble [0 × 1]> <tibble [14 × 4]>
## 2 <split [5467/14]> Slice02 <tibble [2 × 4]> <tibble [0 × 1]> <tibble [14 × 4]>
## 3 <split [5467/14]> Slice03 <tibble [2 × 4]> <tibble [0 × 1]> <tibble [14 × 4]>
## 4 <split [5467/14]> Slice04 <tibble [2 × 4]> <tibble [0 × 1]> <tibble [14 × 4]>
## 5 <split [5467/14]> Slice05 <tibble [2 × 4]> <tibble [0 × 1]> <tibble [14 × 4]>
## 6 <split [5467/14]> Slice06 <tibble [2 × 4]> <tibble [0 × 1]> <tibble [14 × 4]>
## # … with 10 more rows
```
…
