Model Tuning
…
grid
```

This is a type of _space-filling design_. 

It tends to do much better than random grids and is (usually) more efficient than regular grids. 

]
.pull-right[

```
## # A tibble: 25 × 3
##        penalty mixture deg_free
##          <dbl>   <dbl>    <int>
## 1 0.124          0.309        2
## 2 0.0000000474   0.269        5
## 3 0.0000000101   0.810        4
## 4 0.0000140      0.527       11
## 5 0.172          0.897        3
## 6 0.0000329      0.701        3
## # … with 19 more rows
```
…
`tune_grid()` is pretty representative of their syntax (and is similar to `last_fit()`): 

```r
ctrl <- control_grid(save_pred = TRUE)
set.seed(9)
chi_res <- 
  chi_wflow %>% 
  tune_grid(resamples = chi_rs, grid = grid, control = ctrl) # 'grid' = integer for automatic grids
chi_res
```

```
## # Tuning results
## # Sliding period resampling 
## # A tibble: 16 × 5
##   splits            id      .metrics          .notes           .predictions      
##   <list>            <chr>   <list>            <list>           <list>            
## 1 <split [5463/14]> Slice01 <tibble [50 × 7]> <tibble [0 × 1]> <tibble [350 × 7]>
## 2 <split [5467/14]> Slice02 <tibble [50 × 7]> <tibble [0 × 1]> <tibble [350 × 7]>
## 3 <split [5467/14]> Slice03 <tibble [50 × 7]> <tibble [0 × 1]> <tibble [350 × 7]>
## 4 <split [5467/14]> Slice04 <tibble [50 × 7]> <tibble [0 × 1]> <tibble [350 × 7]>
## 5 <split [5467/14]> Slice05 <tibble [50 × 7]> <tibble [0 × 1]> <tibble [350 × 7]>
## 6 <split [5467/14]> Slice06 <tibble [50 × 7]> <tibble [0 × 1]> <tibble [350 × 7]>
## # … with 10 more rows
```
…
<img src="images/tuning-enhacned-1.svg" width="80%" style="display: block; margin: auto;" />

---
# Returning results

```r
collect_metrics(chi_res)
```

```
## # A tibble: 50 × 9
##        penalty mixture deg_free .metric .estimator  mean     n std_err .config      
##          <dbl>   <dbl>    <int> <chr>   <chr>      <dbl> <int>   <dbl> <chr>        
## 1 0.124          0.309        2 rmse    standard   2.11     16  0.266  Preprocessor…
## 2 0.124          0.309        2 rsq     standard   0.924    16  0.0249 Preprocessor…
## 3 0.491          0.817        2 rmse    standard   2.95     16  0.402  Preprocessor…
## 4 0.491          0.817        2 rsq     standard   0.848    16  0.0502 Preprocessor…
## 5 0.0000000474   0.269        5 rmse    standard   1.74     16  0.241  Preprocessor…
## 6 0.0000000474   0.269        5 rsq     standard   0.947    16  0.0213 Preprocessor…
## # … with 44 more rows
```

```r
collect_metrics(chi_res, summarize = FALSE)
```

```
## # A tibble: 800 × 8
##   id      penalty mixture deg_free .metric .estimator .estimate .config             
##   <chr>     <dbl>   <dbl>    <int> <chr>   <chr>          <dbl> <chr>               
## 1 Slice01   0.124   0.309        2 rmse    standard       4.20  Preprocessor01_Mode…
## 2 Slice01   0.124   0.309        2 rsq     standard       0.722 Preprocessor01_Mode…
## 3 Slice02   0.124   0.309        2 rmse    standard       1.96  Preprocessor01_Mode…
## 4 Slice02   0.124   0.309        2 rsq     standard       0.961 Preprocessor01_Mode…
## 5 Slice03   0.124   0.309        2 rmse    standard       2.30  Preprocessor01_Mode…
## 6 Slice03   0.124   0.309        2 rsq     standard       0.915 Preprocessor01_Mode…
## # … with 794 more rows
```
…
